01_first_models_and_transformations.knit
…
Big model

chl_extracted ~ sensor_rfu + turbidity + fdom + turb*fdom + temp + salinity + method + month + reserve

fit_big <- lm(extracted ~ sensor_rfu + turb + fdom_qsu + turb*fdom_qsu + temp + sal + as.factor(method) + as.factor(month) + as.factor(reserve_code), data = dat)

broom::tidy(fit_big)

## # A tibble: 30 x 5
##    term                  estimate std.error statistic  p.value
##    <chr>                    <dbl>     <dbl>     <dbl>    <dbl>
##  1 (Intercept)            -1.30      2.92      -0.443 6.58e- 1
##  2 sensor_rfu              2.37      0.159     14.9   4.46e-45
##  3 turb                    0.104     0.0629     1.65  1.00e- 1
##  4 fdom_qsu               -0.0519    0.0174    -2.97  3.02e- 3
##  5 temp                    0.206     0.0791     2.61  9.23e- 3
##  6 sal                     0.0249    0.0687     0.362 7.17e- 1
##  7 as.factor(method)tank  -1.78      1.19      -1.50  1.35e- 1
##  8 as.factor(month)2       0.557     1.54       0.363 7.17e- 1
##  9 as.factor(month)3      -1.97      2.01      -0.983 3.26e- 1
## 10 as.factor(month)4       1.71      1.83       0.932 3.52e- 1
## # ... with 20 more rows
…
